<svg width="115" height="36" viewBox="0 0 115 36" fill="none" xmlns="http://www.w3.org/2000/svg">
<rect width="115" height="36" rx="18" fill="#55C2D8"/>
<path d="M23.1902 12.66H25.4722C26.6202 12.66 27.4602 12.898 27.9922 13.374C28.5335 13.8407 28.8042 14.606 28.8042 15.67C28.8042 17.126 28.3375 18.008 27.4042 18.316L29.0142 24H27.4882L26.0042 18.68H24.7722V24H23.1902V12.66ZM25.3742 17.546C26.0555 17.546 26.5409 17.4107 26.8302 17.14C27.1289 16.8693 27.2782 16.3793 27.2782 15.67C27.2782 15.2033 27.2269 14.8393 27.1242 14.578C27.0215 14.3073 26.8395 14.1113 26.5782 13.99C26.3169 13.8593 25.9482 13.794 25.4722 13.794H24.7722V17.546H25.3742ZM31.85 12.66H36.246V13.836H33.432V17.588H35.714V18.708H33.432V22.866H36.274V24H31.85V12.66ZM40.7431 12.66H42.2691L44.6911 24H43.1931L42.6751 21.144H40.3651L39.8191 24H38.3351L40.7431 12.66ZM42.4651 20.01L41.5131 14.9L40.5751 20.01H42.4651ZM47.2418 12.66H49.7058C50.9284 12.66 51.7918 12.94 52.2958 13.5C52.8091 14.06 53.0658 14.9327 53.0658 16.118V20.29C53.0658 21.5407 52.8138 22.474 52.3098 23.09C51.8151 23.6967 50.9891 24 49.8318 24H47.2418V12.66ZM49.7198 22.866C50.2704 22.866 50.6671 22.7587 50.9098 22.544C51.1618 22.3293 51.3158 22.04 51.3718 21.676C51.4371 21.3027 51.4698 20.7427 51.4698 19.996V16.314C51.4698 15.67 51.4278 15.18 51.3438 14.844C51.2691 14.4987 51.1058 14.2467 50.8538 14.088C50.6018 13.92 50.2098 13.836 49.6778 13.836H48.8238V22.866H49.7198ZM60.8058 12.66H62.3598L64.3618 21.858L66.3778 12.66H67.9178L68.1278 24H66.8538L66.7278 15.768L64.8098 24H63.9138L62.0098 15.768L61.8838 24H60.5958L60.8058 12.66ZM74.164 24.126C73.0533 24.126 72.2553 23.8133 71.77 23.188C71.294 22.5533 71.056 21.6387 71.056 20.444V16.146C71.056 14.97 71.2987 14.0787 71.784 13.472C72.2693 12.8653 73.0627 12.562 74.164 12.562C75.2653 12.562 76.054 12.87 76.53 13.486C77.0153 14.0927 77.258 14.9793 77.258 16.146V20.458C77.258 21.634 77.0153 22.5393 76.53 23.174C76.0447 23.8087 75.256 24.126 74.164 24.126ZM74.164 22.88C74.752 22.88 75.1487 22.7073 75.354 22.362C75.5593 22.0167 75.662 21.494 75.662 20.794V15.824C75.662 15.1333 75.5593 14.6247 75.354 14.298C75.1487 13.962 74.752 13.794 74.164 13.794C73.5667 13.794 73.1653 13.962 72.96 14.298C72.7547 14.6247 72.652 15.1333 72.652 15.824V20.794C72.652 21.494 72.7547 22.0167 72.96 22.362C73.1653 22.7073 73.5667 22.88 74.164 22.88ZM80.2129 12.66H82.4949C83.6429 12.66 84.4829 12.898 85.0149 13.374C85.5562 13.8407 85.8269 14.606 85.8269 15.67C85.8269 17.126 85.3602 18.008 84.4269 18.316L86.0369 24H84.5109L83.0269 18.68H81.7949V24H80.2129V12.66ZM82.3969 17.546C83.0782 17.546 83.5635 17.4107 83.8529 17.14C84.1515 16.8693 84.3009 16.3793 84.3009 15.67C84.3009 15.2033 84.2495 14.8393 84.1469 14.578C84.0442 14.3073 83.8622 14.1113 83.6009 13.99C83.3395 13.8593 82.9709 13.794 82.4949 13.794H81.7949V17.546H82.3969ZM88.8726 12.66H93.2686V13.836H90.4546V17.588H92.7366V18.708H90.4546V22.866H93.2966V24H88.8726V12.66Z" fill="white"/>
</svg>
